<?xml version="1.0" encoding="utf-8"?>
<!-- Generator: Adobe Illustrator 24.3.0, SVG Export Plug-In . SVG Version: 6.00 Build 0)  -->
<svg version="1.1" id="Calque_1" xmlns="http://www.w3.org/2000/svg" xmlns:xlink="http://www.w3.org/1999/xlink" x="0px" y="0px"
	 viewBox="0 0 283.46 283.46" style="enable-background:new 0 0 283.46 283.46;" xml:space="preserve">
<style type="text/css">
	.st0{fill:#1D1D1B;}
	.st1{fill:none;stroke:#1D1D1B;stroke-width:3;stroke-miterlimit:10;}
	.st2{fill:none;stroke:#4874A6;stroke-width:10;stroke-miterlimit:10;}
	.st3{fill:#6B8AAB;}
	.st4{font-family:'BalsamiqSans-Regular';}
	.st5{font-size:173px;}
</style>
<g>
	<g>
		<path class="st0" d="M357.2,155.6c-4.89-5.27-10.11-10.21-15.65-14.79c-1.01-0.83-2.56-1.06-3.54,0c-0.85,0.92-1.08,2.65,0,3.54
			c5.54,4.58,10.76,9.52,15.65,14.79c0.89,0.96,2.65,0.97,3.54,0C358.15,158.11,358.15,156.63,357.2,155.6L357.2,155.6z"/>
	</g>
</g>
<g>
	<g>
		<path class="st0" d="M326.05,115.55c-0.13-0.81-0.26-1.61-0.39-2.42c-0.08-0.33-0.23-0.61-0.45-0.85
			c-0.18-0.27-0.41-0.49-0.7-0.64c-0.29-0.18-0.6-0.28-0.93-0.3c-0.33-0.07-0.66-0.06-1,0.04c-0.2,0.08-0.4,0.17-0.6,0.25
			c-0.38,0.22-0.67,0.52-0.9,0.9c-0.08,0.2-0.17,0.4-0.25,0.6c-0.12,0.44-0.12,0.89,0,1.33c0.13,0.81,0.26,1.61,0.39,2.42
			c0.08,0.33,0.23,0.61,0.45,0.85c0.18,0.27,0.41,0.49,0.7,0.64c0.29,0.18,0.6,0.28,0.93,0.3c0.33,0.07,0.66,0.06,1-0.04
			c0.2-0.08,0.4-0.17,0.6-0.25c0.38-0.22,0.67-0.52,0.9-0.9c0.08-0.2,0.17-0.4,0.25-0.6C326.17,116.43,326.17,115.99,326.05,115.55
			L326.05,115.55z"/>
	</g>
</g>
<g>
	<g>
		<path class="st0" d="M347.75,161.93c-6.23-4.91-12.14-10.2-17.7-15.85c-1.59-1.71-3.46-2.91-5.63-3.62
			c-2.09-1.1-4.33-1.6-6.74-1.51c-2.41-0.09-4.66,0.41-6.74,1.51c-2.17,0.71-4.05,1.91-5.63,3.62c-3.06,3.34-5.33,7.71-5.13,12.37
			c0.21,1.55,0.42,3.1,0.63,4.65c0.83,2.96,2.33,5.54,4.5,7.72c5.56,5.65,11.47,10.94,17.7,15.85c1.59,1.71,3.46,2.91,5.63,3.62
			c2.09,1.1,4.33,1.6,6.74,1.51c2.41,0.09,4.66-0.41,6.74-1.51c2.17-0.71,4.05-1.91,5.63-3.62c3.06-3.34,5.33-7.71,5.13-12.37
			c-0.21-1.55-0.42-3.1-0.63-4.65C351.42,166.69,349.92,164.11,347.75,161.93L347.75,161.93z"/>
	</g>
</g>
<g>
	<g>
		<path class="st0" d="M335.18,117.79c-0.44-0.16-0.87-0.33-1.3-0.5c0.8,0.34,1.59,0.67,2.39,1.01c-2.07-0.87-4.02-2.01-5.8-3.38
			c0.67,0.52,1.35,1.04,2.02,1.56c-0.03-0.03-0.07-0.05-0.1-0.08c-0.91-0.98-1.98-1.66-3.22-2.07c-1.19-0.63-2.48-0.91-3.85-0.86
			c-1.38-0.05-2.66,0.24-3.85,0.86c-1.24,0.4-2.31,1.09-3.22,2.07c-0.52,0.67-1.04,1.35-1.56,2.02c-0.9,1.56-1.36,3.24-1.37,5.05
			c0.12,0.89,0.24,1.77,0.36,2.66c0.48,1.69,1.33,3.16,2.57,4.41c1.77,1.38,3.5,2.75,5.46,3.84c0.61,0.34,1.24,0.65,1.87,0.93
			c1.4,0.63,2.82,1.24,4.27,1.77c1.33,0.42,2.66,0.48,3.99,0.18c1.33-0.06,2.57-0.46,3.72-1.19c1.17-0.63,2.1-1.49,2.81-2.58
			c0.88-0.97,1.48-2.1,1.79-3.4c0.12-0.89,0.24-1.77,0.36-2.66c-0.01-1.81-0.46-3.49-1.37-5.05c-0.52-0.67-1.04-1.35-1.56-2.02
			C338.34,119.12,336.87,118.26,335.18,117.79L335.18,117.79z"/>
	</g>
</g>
<g>
	<g>
		<path class="st0" d="M318.48,125.46c-5.2-4.06-10.66-7.55-16.74-10.15c-0.86-0.55-1.79-0.84-2.79-0.89
			c-1-0.22-1.99-0.18-2.99,0.13c-1.74,0.48-3.62,1.82-4.48,3.45c-0.92,1.74-1.38,3.85-0.76,5.78c0.56,1.72,1.7,3.74,3.45,4.48
			c5.27,2.25,10.24,5.16,14.8,8.65c-0.51-0.39-1.01-0.78-1.52-1.17c0.14,0.11,0.29,0.22,0.43,0.33c0.68,0.73,1.48,1.25,2.41,1.55
			c0.89,0.47,1.86,0.68,2.89,0.65c1.84,0,4.04-0.82,5.3-2.2c1.31-1.43,2.29-3.31,2.2-5.3C320.6,128.92,320.01,126.65,318.48,125.46
			L318.48,125.46z"/>
	</g>
</g>
<path class="st1" d="M140.87,81.27"/>
<path class="st2" d="M251.19,266.39H33.32c-8.83,0-15.98-7.16-15.98-15.98V34.28c0-8.83,7.16-15.98,15.98-15.98h217.86
	c8.83,0,15.98,7.16,15.98,15.98v216.13C267.17,259.24,260.01,266.39,251.19,266.39z"/>
<text transform="matrix(1 0 0 1 39.1421 192.4639)" class="st3 st4 st5">Ps</text>
</svg>
